{
    "title": "Comm Module Artemis",
    "width": 2,
    "height": 1,
    "content": {
      "kind": "stack",
      "content": [
        {
          "kind": "text",
          "text": "2024-01-16T08:27:36.067147"
        },
        {
          "kind": "text",
          "text": "ready"
        }
      ]
    }
  }