{
  "title": "Installer",
  "width": 4,
  "height": 4,
  "content": {
    "kind": "stack",
    "content": [
      {
        "kind": "table",
        "header": [
          {
            "kind": "text",
            "text": "Component"
          },
          {
            "kind": "text",
            "text": ""
          },
          {
            "kind": "text",
            "text": ""
          },
          {
            "kind": "text",
            "text": "Expected/Ready"
          },
          {
            "kind": "text",
            "text": "Ports"
          }
        ],
        "rows": [
          [
            {
              "kind": "text",
              "text": "cockpit_frontend"
            },
            {
              "kind": "button",
              "id": "{\"action\": \"deploy\", \"what\": \"cockpit_frontend\"}",
              "text": "deploy",
              "pressed": false
            },
            {
              "kind": "text",
              "text": ""
            },
            {
              "kind": "text",
              "text": "1/1"
            },
            {
              "kind": "text",
              "text": "2000"
            }
          ],
          [
            {
              "kind": "text",
              "text": "cockpit_backend"
            },
            {
              "kind": "button",
              "id": "{\"action\": \"deploy\", \"what\": \"cockpit_backend\"}",
              "text": "deploy",
              "pressed": false
            },
            {
              "kind": "text",
              "text": ""
            },
            {
              "kind": "text",
              "text": "1/1"
            },
            {
              "kind": "text",
              "text": "2001, 2002"
            }
          ],
          [
            {
              "kind": "text",
              "text": "thruster"
            },
            {
              "kind": "button",
              "id": "{\"action\": \"deploy\", \"what\": \"thruster\"}",
              "text": "deploy",
              "pressed": false
            },
            {
              "kind": "button",
              "id": "{\"action\": \"undeploy\", \"what\": \"thruster\"}",
              "text": "undeploy",
              "pressed": false
            },
            {
              "kind": "text",
              "text": "6/6"
            },
            {
              "kind": "text",
              "text": "2003, 2004, 2005, 2006, 2007, 2008"
            }
          ],
          [
            {
              "kind": "text",
              "text": "navigation"
            },
            {
              "kind": "button",
              "id": "{\"action\": \"deploy\", \"what\": \"navigation\"}",
              "text": "deploy",
              "pressed": false
            },
            {
              "kind": "button",
              "id": "{\"action\": \"undeploy\", \"what\": \"navigation\"}",
              "text": "undeploy",
              "pressed": false
            },
            {
              "kind": "text",
              "text": "1/1"
            },
            {
              "kind": "text",
              "text": "2010"
            }
          ],
          [
            {
              "kind": "text",
              "text": "easy_steering"
            },
            {
              "kind": "button",
              "id": "{\"action\": \"deploy\", \"what\": \"easy_steering\"}",
              "text": "deploy",
              "pressed": false
            },
            {
              "kind": "button",
              "id": "{\"action\": \"undeploy\", \"what\": \"easy_steering\"}",
              "text": "undeploy",
              "pressed": false
            },
            {
              "kind": "text",
              "text": "0/0"
            },
            {
              "kind": "text",
              "text": ""
            }
          ],
          [
            {
              "kind": "text",
              "text": "communication"
            },
            {
              "kind": "button",
              "id": "{\"action\": \"deploy\", \"what\": \"communication\"}",
              "text": "deploy",
              "pressed": false
            },
            {
              "kind": "button",
              "id": "{\"action\": \"undeploy\", \"what\": \"communication\"}",
              "text": "undeploy",
              "pressed": false
            },
            {
              "kind": "text",
              "text": "1/1"
            },
            {
              "kind": "text",
              "text": "2011"
            }
          ],
          [
            {
              "kind": "text",
              "text": "cargo_hold"
            },
            {
              "kind": "button",
              "id": "{\"action\": \"deploy\", \"what\": \"cargo_hold\"}",
              "text": "deploy",
              "pressed": false
            },
            {
              "kind": "button",
              "id": "{\"action\": \"undeploy\", \"what\": \"cargo_hold\"}",
              "text": "undeploy",
              "pressed": false
            },
            {
              "kind": "text",
              "text": "1/1"
            },
            {
              "kind": "text",
              "text": "2012"
            }
          ],
          [
            {
              "kind": "text",
              "text": "mission_computer"
            },
            {
              "kind": "button",
              "id": "{\"action\": \"deploy\", \"what\": \"mission_computer\"}",
              "text": "deploy",
              "pressed": false
            },
            {
              "kind": "button",
              "id": "{\"action\": \"undeploy\", \"what\": \"mission_computer\"}",
              "text": "undeploy",
              "pressed": false
            },
            {
              "kind": "text",
              "text": "1/1"
            },
            {
              "kind": "text",
              "text": "2022"
            }
          ],
          [
            {
              "kind": "text",
              "text": "installer"
            },
            {
              "kind": "button",
              "id": "{\"action\": \"deploy\", \"what\": \"installer\"}",
              "text": "deploy",
              "pressed": false
            },
            {
              "kind": "text",
              "text": ""
            },
            {
              "kind": "text",
              "text": "1/1"
            },
            {
              "kind": "text",
              "text": ""
            }
          ],
          [
            {
              "kind": "text",
              "text": "cockpit_example"
            },
            {
              "kind": "button",
              "id": "{\"action\": \"deploy\", \"what\": \"cockpit_example\"}",
              "text": "deploy",
              "pressed": false
            },
            {
              "kind": "button",
              "id": "{\"action\": \"undeploy\", \"what\": \"cockpit_example\"}",
              "text": "undeploy",
              "pressed": false
            },
            {
              "kind": "text",
              "text": "1/1"
            },
            {
              "kind": "text",
              "text": ""
            }
          ],
          [
            {
              "kind": "text",
              "text": "scanner"
            },
            {
              "kind": "button",
              "id": "{\"action\": \"deploy\", \"what\": \"scanner\"}",
              "text": "deploy",
              "pressed": false
            },
            {
              "kind": "button",
              "id": "{\"action\": \"undeploy\", \"what\": \"scanner\"}",
              "text": "undeploy",
              "pressed": false
            },
            {
              "kind": "text",
              "text": "1/1"
            },
            {
              "kind": "text",
              "text": ""
            }
          ],
          [
            {
              "kind": "text",
              "text": "laser"
            },
            {
              "kind": "button",
              "id": "{\"action\": \"deploy\", \"what\": \"laser\"}",
              "text": "deploy",
              "pressed": false
            },
            {
              "kind": "button",
              "id": "{\"action\": \"undeploy\", \"what\": \"laser\"}",
              "text": "undeploy",
              "pressed": false
            },
            {
              "kind": "text",
              "text": "1/1"
            },
            {
              "kind": "text",
              "text": "2018"
            }
          ],
          [
            {
              "kind": "text",
              "text": "permastore"
            },
            {
              "kind": "button",
              "id": "{\"action\": \"deploy\", \"what\": \"permastore\"}",
              "text": "deploy",
              "pressed": false
            },
            {
              "kind": "button",
              "id": "{\"action\": \"undeploy\", \"what\": \"permastore\"}",
              "text": "undeploy",
              "pressed": false
            },
            {
              "kind": "text",
              "text": "1/1"
            },
            {
              "kind": "text",
              "text": "2019"
            }
          ],
          [
            {
              "kind": "text",
              "text": "longrangecommunicator"
            },
            {
              "kind": "button",
              "id": "{\"action\": \"deploy\", \"what\": \"longrangecommunicator\"}",
              "text": "deploy",
              "pressed": false
            },
            {
              "kind": "button",
              "id": "{\"action\": \"undeploy\", \"what\": \"longrangecommunicator\"}",
              "text": "undeploy",
              "pressed": false
            },
            {
              "kind": "text",
              "text": "1/1"
            },
            {
              "kind": "text",
              "text": ""
            }
          ],
          [
            {
              "kind": "text",
              "text": "comm-module-artemis"
            },
            {
              "kind": "button",
              "id": "{\"action\": \"deploy\", \"what\": \"comm-module-artemis\"}",
              "text": "deploy",
              "pressed": false
            },
            {
              "kind": "button",
              "id": "{\"action\": \"undeploy\", \"what\": \"comm-module-artemis\"}",
              "text": "undeploy",
              "pressed": false
            },
            {
              "kind": "text",
              "text": "1/1"
            },
            {
              "kind": "text",
              "text": "2024"
            }
          ],
          [
            {
              "kind": "text",
              "text": "comm-module-shangris"
            },
            {
              "kind": "button",
              "id": "{\"action\": \"deploy\", \"what\": \"comm-module-shangris\"}",
              "text": "deploy",
              "pressed": false
            },
            {
              "kind": "button",
              "id": "{\"action\": \"undeploy\", \"what\": \"comm-module-shangris\"}",
              "text": "undeploy",
              "pressed": false
            },
            {
              "kind": "text",
              "text": "1/1"
            },
            {
              "kind": "text",
              "text": "2025"
            }
          ],
          [
            {
              "kind": "text",
              "text": "comm-module-elyse"
            },
            {
              "kind": "button",
              "id": "{\"action\": \"deploy\", \"what\": \"comm-module-elyse\"}",
              "text": "deploy",
              "pressed": false
            },
            {
              "kind": "button",
              "id": "{\"action\": \"undeploy\", \"what\": \"comm-module-elyse\"}",
              "text": "undeploy",
              "pressed": false
            },
            {
              "kind": "text",
              "text": "1/1"
            },
            {
              "kind": "text",
              "text": "2026"
            }
          ]
        ]
      }
    ]
  }
}