{
    "title": "Laser",
    "width": 2,
    "height": 1,
    "content": {
      "kind": "stack",
      "content": [
        {
          "kind": "text",
          "text": "2023-12-05T14:37:12.067024"
        },
        {
          "kind": "text",
          "text": "Aktueller Status: Freigeschaltet und inaktiv"
        }
      ]
    }
  }