{
  "title": "Long Range Communicator",
  "width": 3,
  "height": 1,
  "content": {
    "kind": "stack",
    "content": [
      {
        "kind": "text",
        "text": "2024-01-16T08:22:58.960813"
      },
      {
        "kind": "table",
        "header": [
          {
            "kind": "text",
            "text": "System"
          },
          {
            "kind": "text",
            "text": "Status"
          }
        ],
        "rows": [
          [
            {
              "kind": "text",
              "text": "coupler"
            },
            {
              "kind": "text",
              "text": "transmitting: 0 messages transmitted, errors=1) (go to log for details)"
            }
          ],
          [
            {
              "kind": "text",
              "text": "db"
            },
            {
              "kind": "text",
              "text": "connected"
            }
          ],
          [
            {
              "kind": "text",
              "text": "scanner"
            },
            {
              "kind": "text",
              "text": "received positions"
            }
          ]
        ]
      }
    ]
  }
}