{
    "title": "Mission Computer",
    "width": 3,
    "height": 4,
    "content": {
      "kind": "stack",
      "content": [
        {
          "kind": "stack",
          "content": [
            {
              "kind": "text",
              "style": "bold",
              "text": "Dringende Lieferung"
            },
            {
              "kind": "text",
              "text": "Wir brauchen noch 60 Gold in Core Station!"
            },
            {
              "kind": "text",
              "style": "inactive",
              "text": "Wir brauchen dringend Gold, um die neuste iWatch 133 herstellen zu können. Ein Aufstand der Stationsbewohner muss abgewendet werden"
            },
            {
              "kind": "text",
              "text": ""
            }
          ]
        },
        {
          "kind": "stack",
          "content": [
            {
              "kind": "text",
              "style": "bold",
              "text": "Forschungsdaten von Elyse Terminal"
            },
            {
              "kind": "text",
              "text": "Wunderbar. Jetzt müssen die Daten nur noch heruntergeladen werden und dann bei Artemis Station hochgeladen werden."
            },
            {
              "kind": "text",
              "style": "inactive",
              "text": "Es sind wichtige Forschungsdaten verfügbar, welche nach Artemis Station gebracht werden sollen. Bitte hole die Daten von Elyse Terminal ab. Die Daten können mit dem Permastore Modul heruntergeladen werden."
            },
            {
              "kind": "text",
              "text": ""
            }
          ]
        },
        {
          "kind": "stack",
          "content": [
            {
              "kind": "text",
              "style": "bold",
              "text": "Signalbrücke"
            },
            {
              "kind": "text",
              "text": "Die Artemis Station möchte gerne der Shangris Station einige Daten austauschen. Damit die Artemis Station mit der Shangris Station kommunizieren kann, muss der Long-Range-Communicator in Betrieb genommen werden."
            },
            {
              "kind": "text",
              "text": ""
            }
          ]
        },
        {
          "kind": "text",
          "style": "bold",
          "text": "Abgeschlossene Missionen"
        },
        {
          "kind": "text",
          "text": "Abgeschlossene Missionen: Statue Iron Fist, Eingefrorene Station, Shangris Station, Partnerstation Artemis, Platin"
        }
      ]
    }
  }