{
    "title": "Thruster bottomLeft",
    "width": 1,
    "height": 1,
    "content": {
      "kind": "stack",
      "content": [
        {
          "kind": "text",
          "text": "0.0%"
        },
        {
          "kind": "button",
          "id": "boost",
          "text": "Boost",
          "pressed": false
        }
      ]
    }
  }